<?xml version="1.0" standalone="no"?>
<!DOCTYPE svg PUBLIC "-//W3C//DTD SVG 1.1//EN" "http://www.w3.org/Graphics/SVG/1.1/DTD/svg11.dtd">
<svg xmlns="http://www.w3.org/2000/svg">
<metadata>Generated by Fontastic.me</metadata>
<defs>
<font id="rent" horiz-adv-x="512">
<font-face font-family="rent" units-per-em="512" ascent="480" descent="-32"/>
<missing-glyph horiz-adv-x="512" />

<glyph unicode="&#97;" d="M425 120c-6-20-25-32-43-27-17 5-26 26-20 46 6 20 25 32 42 27 18-5 27-26 21-46z m-74-94c-43 5-74 41-82 83-5 26 1 45-16 51-30 12-70-8-108-4-34 5-60 31-61 75-1 40 28 95-13 113 18-4 32-7 39-23 17-32-9-95 19-113 14-9 39-4 56-2 19 2 33 8 51 8-11 15-27 18-39 27-14 10-34 29-43 47-17 32-14 89-37 110-18 15-48 16-79 10 21 18 75 21 95 6 27-19 21-74 45-103 11-13 27-18 40-23 13-5 28-10 49-12 16 68-37 77-70 107-25 22-41 49-37 103 5-28 11-52 31-68 13-10 32-14 47-22 36-21 69-54 78-104 8 5 14 15 21 25 7 10 16 18 16 31 1 19-13 34-24 44-29 22-82 16-70 78 5-15 6-33 18-41 18-13 46-13 66-25 18-11 46-35 45-66 0-36-35-50-20-91 35-10 53-10 72-27 73-63 19-206-89-194z m99 86c14 47-8 95-48 107-41 12-86-16-100-63-14-47 8-95 49-107 41-13 85 16 99 63z"/>
<glyph unicode="&#98;" d="M239 510c-27-4-48-16-64-38-15-21-23-44-25-81-2-21-3-24-12-39-7-11-9-18-10-29 0-10 2-19 6-28 3-6 5-8 17-23 10-12 15-20 18-31 1-5 1-10 1-27 0-48-7-85-20-115-18-37-46-56-82-56-16 0-26 4-36 14-7 7-12 15-18 30-2 5-4 10-5 10-3 3-9-7-9-13 0-11 6-28 14-40 18-27 48-44 78-44 31 0 60 13 84 38 21 23 37 50 57 101 15 38 18 44 23 44 3 0 6-7 15-34 9-30 12-39 21-58 22-44 50-70 89-83 20-7 48-10 64-7 30 6 54 29 64 62 2 7 2 11 2 20 1 10 0 11-2 13-3 3-5 2-7-4-10-22-14-29-21-37-10-9-21-13-38-12-32 2-57 21-74 58-15 33-25 80-25 123 0 24 2 29 20 48 17 17 22 28 22 47 0 9-2 15-8 26-10 15-15 31-15 45 0 3 0 7-1 9-4 22-7 30-10 39-10 30-28 52-49 63-19 10-43 13-64 9z m-58-171c15-7 15-31 0-38-6-3-15-3-21 0-14 7-14 31 0 38 6 3 15 3 21 0z m173-1c11-8 11-28 0-36-5-3-15-4-21-2-17 7-17 32-1 39 6 3 16 2 22-1z m-321-83c-15-5-28-20-32-39-3-17 1-41 9-58 16-31 49-49 95-51l14 0 5 5c15 17 25 54 25 92l0 8-4-7c-12-25-28-40-45-46-7-3-10-3-18-3-39 0-63 22-60 53 1 9 6 18 12 22 4 3 5 3 11 3 12 0 22-5 30-15 3-5 4-6 6-5 5 2 5 7-2 18-8 14-21 23-34 24-4 0-10-1-12-1z m427 0c-3-1-6-3-9-4-12-6-27-29-23-35 2-2 5-1 9 5 6 7 14 12 22 14 8 2 9 2 14 1 12-3 19-20 17-37-2-16-13-29-29-35-12-5-33-7-44-5-17 5-32 17-45 39-3 5-6 10-7 12l-2 4 0-9c0-5 1-16 2-23 3-32 11-56 24-70l4-5 14 0c47 2 80 20 95 51 8 17 12 41 9 58-3 11-7 20-14 28-9 8-15 11-26 12-5 0-9-1-11-1z"/>
<glyph unicode="&#99;" d="M62 300c16 4 114 30 114 30 0-3-1-10-1-10 0-35 25-64 64-64 40 0 64 30 64 64 0 6-4 11-9 16l24-1c0 0 4 1 16 4-26-7-54 15-63 49-9 34 4 68 30 75-12-3-16-4-16-4l-84-55c-17-5-27-23-23-40 1-5 4-9 6-12-3-6-6-13-7-20-14 1-26 10-30 23-4 17 6 35 23 39l-123-32c-17-5-27-22-22-39 4-17 20-27 36-23z m209-76l-64 0 0-32-160-160 64 0 96 64 0-64 64 0 0 64 96-64 64 0-160 160z m215 224c-9 34-35 55-61 48-35-9-49-14-93-26-26-7-40-40-31-74 9-34 37-57 63-51 43 12 58 17 93 26 25 7 38 42 29 77z m-35-45c-9-3-21 8-26 25-4 17-2 33 7 35 8 2 21-8 25-25 5-17 2-33-6-35z"/>
<glyph unicode="&#100;" d="M254 174l33 33-44 43-33-33 0-16 28 0 0-27z m125 205c-3 3-6 3-9 0l-100-100c-3-3-3-6 0-9 3-3 6-3 9 0l100 100c3 3 3 6 0 9z m23-169l0-55c0-22-8-42-24-58-16-16-35-24-58-24l-238 0c-22 0-42 8-58 24-16 16-24 36-24 58l0 238c0 23 8 42 24 58 16 16 36 24 58 24l238 0c12 0 23-2 33-7 3-1 5-3 6-6 0-4-1-6-3-9l-14-14c-3-2-6-3-9-2-5 1-9 2-13 2l-238 0c-12 0-23-5-32-14-9-9-13-19-13-32l0-238c0-12 4-23 13-32 9-9 20-13 32-13l238 0c13 0 23 4 32 13 9 9 14 20 14 32l0 36c0 3 1 5 2 7l19 18c2 3 6 4 10 2 3-2 5-4 5-8z m-27 211l82-83-192-192-82 0 0 83z m127-38l-27-26-82 82 26 26c6 5 12 8 20 8 7 0 14-3 19-8l44-43c5-6 8-12 8-20 0-7-3-14-8-19z"/>
<glyph unicode="&#101;" d="M475 274l0-36c0-39-9-73-28-104-18-30-45-54-78-72-33-17-71-25-113-25-42 0-80 8-113 25-33 18-60 42-78 72-19 31-28 65-28 104l0 36c0 5 1 10 5 13 4 4 8 6 13 6l110 0c5 0 9-2 12-6 4-3 6-8 6-13l0-36c0-10 2-19 7-26 4-7 9-13 15-16 6-4 12-7 20-9 8-2 14-3 18-4 5 0 9 0 13 0 4 0 8 0 13 0 4 1 10 2 18 4 8 2 14 5 20 9 6 3 11 9 15 16 5 7 7 16 7 26l0 36c0 5 2 10 6 13 3 4 7 6 12 6l110 0c5 0 9-2 13-6 4-3 5-8 5-13z m-292 183l0-110c0-5-2-9-6-12-3-4-7-6-12-6l-110 0c-5 0-9 2-13 6-4 3-5 7-5 12l0 110c0 5 1 9 5 13 4 4 8 5 13 5l110 0c5 0 9-1 12-5 4-4 6-8 6-13z m292 0l0-110c0-5-1-9-5-12-4-4-8-6-13-6l-110 0c-5 0-9 2-12 6-4 3-6 7-6 12l0 110c0 5 2 9 6 13 3 4 7 5 12 5l110 0c5 0 9-1 13-5 4-4 5-8 5-13z"/>
</font></defs></svg>
